Advanced Spectral Analysis with nanodRop • nanodRop
…
Perform statistical comparisons between samples:

# Calculate summary statistics for each sample
sample_stats <- data %>%
  group_by(samps) %>%
  summarise(
    mean_abs = mean(abs),
    max_abs = max(abs),
    wavelength_max = waves[which.max(abs)],
    auc = sum(abs)  # Area under curve approximation
  )

print(sample_stats)
#> # A tibble: 24 × 5
#>    samps mean_abs max_abs wavelength_max   auc
#>    <chr>    <dbl>   <dbl>          <dbl> <dbl>
#>  1 10 1      4.10   23.8            228. 5418.
#>  2 10 2      4.87   26.1            229  6433.
#>  3 11 1      3.56   26.3            230. 4709.
#>  4 11 2      3.17   24.8            228. 4184.
#>  5 12 1      3.84   26.4            230  5075.
#>  6 12 2      3.88   26.1            230. 5131.
#>  7 13 1      2.11   15.9            197  2781.
#>  8 13 2      1.38   14.9            194. 1823.
#>  9 14 1      2.36   10.5            190. 3122.
#> 10 14 2      1.42    9.61           190  1882.
#> # ℹ 14 more rows
…
